set term png
set output "charts/1000_iterations.png"
set boxwidth 0.5
set yrange [0:100]
set linetype 1 lc rgb "blue"
set linetype 2 lc rgb "red"
set linetype 3 lc rgb "green"
set style fill solid
set ylabel "CPU Usage(%)"
set xlabel "Iterations"
set title "Fibonacci CPU Usage"
plot "1000_iterations.dat" using 1:3:($1+1):xtic(2) with boxes linecolor variable title ""